C:\Users\brule\Desktop\openclassroom\projet\p12\livrable p12\wesharejoblocal\serviceauthentication\src\main\java\com\example\demo\AuthenticationApplication.java
C:\Users\brule\Desktop\openclassroom\projet\p12\livrable p12\wesharejoblocal\serviceauthentication\src\main\java\com\example\demo\jwt\JwtTokenProvider.java
C:\Users\brule\Desktop\openclassroom\projet\p12\livrable p12\wesharejoblocal\serviceauthentication\src\main\java\com\example\demo\models\Role.java
C:\Users\brule\Desktop\openclassroom\projet\p12\livrable p12\wesharejoblocal\serviceauthentication\src\main\java\com\example\demo\security\UserPrincipal.java
C:\Users\brule\Desktop\openclassroom\projet\p12\livrable p12\wesharejoblocal\serviceauthentication\src\main\java\com\example\demo\security\UserDetailsServiceImpl.java
C:\Users\brule\Desktop\openclassroom\projet\p12\livrable p12\wesharejoblocal\serviceauthentication\src\main\java\com\example\demo\repositories\UserRepository.java
C:\Users\brule\Desktop\openclassroom\projet\p12\livrable p12\wesharejoblocal\serviceauthentication\src\main\java\com\example\demo\security\UserPrincipalDetailsService.java
C:\Users\brule\Desktop\openclassroom\projet\p12\livrable p12\wesharejoblocal\serviceauthentication\src\main\java\com\example\demo\models\UserEntity.java
C:\Users\brule\Desktop\openclassroom\projet\p12\livrable p12\wesharejoblocal\serviceauthentication\src\main\java\com\example\demo\jwt\JWTAuthorizationFilter.java
C:\Users\brule\Desktop\openclassroom\projet\p12\livrable p12\wesharejoblocal\serviceauthentication\src\main\java\com\example\demo\security\SecurityConfig.java
C:\Users\brule\Desktop\openclassroom\projet\p12\livrable p12\wesharejoblocal\serviceauthentication\src\main\java\com\example\demo\services\IAccountService.java
C:\Users\brule\Desktop\openclassroom\projet\p12\livrable p12\wesharejoblocal\serviceauthentication\src\main\java\com\example\demo\models\StringReponse.java
C:\Users\brule\Desktop\openclassroom\projet\p12\livrable p12\wesharejoblocal\serviceauthentication\src\main\java\com\example\demo\controllers\UserController.java
C:\Users\brule\Desktop\openclassroom\projet\p12\livrable p12\wesharejoblocal\serviceauthentication\src\main\java\com\example\demo\services\AccountService.java
