-------------------------------------------------------------------------------
Test set: com.example.demo.services.UserServiceTest
-------------------------------------------------------------------------------
Tests run: 1, Failures: 0, Errors: 0, Skipped: 0, Time elapsed: 1.011 s - in com.example.demo.services.UserServiceTest
